Counts,Voltage [V]
0,2.0109375
1,2.028662109375
2,2.0552490234375
3,2.0810302734375
4,2.1052001953125
5,2.1309814453125
6,2.1551513671875
7,2.1777099609375
8,2.20107421875
9,2.2244384765625
10,2.24619140625
11,2.2679443359375
12,2.2888916015625
13,2.3098388671875
14,2.32998046875
15,2.3501220703125
16,2.36865234375
17,2.3879882812499997
18,2.40732421875
19,2.425048828125
20,2.4427734375
21,2.4613037109375
22,2.47822265625
23,2.4943359375
24,2.5112548828124996
25,2.5273681640624996
26,2.5434814453124996
27,2.5587890625
28,2.5740966796875
29,2.5885986328125
30,2.6031005859375
31,2.6159912109374996
32,2.631298828125
33,2.6449951171875
34,2.6578857421874997
35,2.67158203125
36,2.6836669921875
37,2.6965576171874996
38,2.7094482421875
39,2.7207275390624996
40,2.7328124999999996
41,2.7448974609374996
42,2.7561767578125
43,2.7674560546875
44,2.7779296875
45,2.7892089843749996
46,2.7988769531249997
47,2.808544921875
48,2.8190185546874997
49,2.8286865234375
50,2.8383544921875
51,2.8480224609375
52,2.8560791015625
53,2.866552734375
54,2.8738037109374996
55,2.8834716796874997
56,2.892333984375
57,2.8995849609374997
58,2.9076416015624997
59,2.9156982421874997
60,2.924560546875
61,2.9318115234374997
62,2.9382568359374996
63,2.9455078125
64,2.953564453125
65,2.9608154296875
66,2.9672607421875
67,2.9737060546875
68,2.9801513671874997
69,2.98740234375
70,2.9922363281249997
71,2.9986816406249996
72,3.0043212890624997
73,3.0107666015624996
74,3.0156005859375
75,3.0220458984375
76,3.0268798828124996
77,3.0333251953125
78,3.0381591796875
79,3.043798828125
80,3.0486328124999997
81,3.053466796875
82,3.0574951171875
83,3.0623291015625
84,3.0671630859374996
85,3.0728027343749997
86,3.0768310546874997
87,3.0800537109375
88,3.0848876953124997
89,3.09052734375
90,3.0929443359374997
91,3.0977783203125
92,3.101806640625
93,3.1058349609375
94,3.10986328125
95,3.1130859374999997
96,3.11630859375
97,3.1203369140625
98,3.1235595703124996
99,3.1275878906249996
100,3.1300048828125
101,3.1348388671875
102,3.1380615234375
103,3.140478515625
104,3.1445068359375
105,3.1461181640625
106,3.150146484375
107,3.1525634765625
108,3.1557861328124996
109,3.1573974609374997
110,3.1606201171875
111,3.163037109375
112,3.1654541015624997
113,3.1686767578125
114,3.1702880859375
115,3.1735107421874997
116,3.1751220703125
117,3.1783447265625
118,3.1799560546874996
119,3.1831787109375
120,3.1831787109375
121,3.1864013671875
122,3.1896240234374997
123,3.1912353515625
124,3.1928466796875
125,3.195263671875
126,3.1960693359374996
127,3.1992919921875
128,3.2000976562499996
129,3.2025146484375
130,3.2041259765624996
131,3.2057373046874997
132,3.2081542968749996
133,3.2089599609375
134,3.211376953125
135,3.2121826171874996
136,3.214599609375
137,3.2154052734375
138,3.2178222656249997
139,3.2186279296875
140,3.2202392578124996
141,3.2218505859374997
142,3.2234619140625
143,3.2250732421875
144,3.2258789062499997
145,3.2266845703125
146,3.2291015625
147,3.2291015625
148,3.2315185546875
149,3.2323242187499996
150,3.2331298828125
151,3.2347412109375
152,3.2347412109375
153,3.2363525390624996
154,3.2379638671874997
155,3.23876953125
156,3.2395751953125
157,3.2411865234375
158,3.2419921874999997
159,3.2427978515625
160,3.243603515625
161,3.2444091796874996
162,3.24521484375
163,3.246826171875
164,3.2476318359375
165,3.2476318359375
166,3.2484374999999996
167,3.2500488281249997
168,3.2508544921875
169,3.25166015625
170,3.2524658203124996
171,3.2540771484374997
172,3.253271484375
173,3.2540771484374997
174,3.2556884765625
175,3.2556884765625
176,3.2572998046875
177,3.2572998046875
178,3.2581054687499997
179,3.2581054687499997
180,3.2589111328125
181,3.259716796875
182,3.2605224609374996
183,3.2605224609374996
184,3.261328125
185,3.2605224609374996
186,3.2621337890624997
187,3.2637451171875
188,3.2637451171875
189,3.2645507812499996
190,3.2653564453125
191,3.2653564453125
192,3.2653564453125
193,3.2661621093749997
194,3.2669677734375
195,3.2669677734375
196,3.2677734375
197,3.2677734375
198,3.2677734375
199,3.2685791015624996
200,3.269384765625
201,3.2701904296874997
202,3.269384765625
203,3.2701904296874997
204,3.27099609375
205,3.27099609375
206,3.2718017578125
207,3.2718017578125
208,3.2726074218749996
209,3.2726074218749996
210,3.2734130859375
211,3.2734130859375
212,3.2734130859375
213,3.2734130859375
214,3.2734130859375
215,3.2750244140625
216,3.2750244140625
217,3.275830078125
218,3.2750244140625
219,3.275830078125
220,3.275830078125
221,3.2766357421874996
222,3.2766357421874996
223,3.2766357421874996
224,3.2766357421874996
225,3.2766357421874996
226,3.27744140625
227,3.2782470703124997
228,3.2782470703124997
229,3.2782470703124997
230,3.2782470703124997
231,3.279052734375
232,3.279052734375
233,3.279052734375
234,3.2798583984375
235,3.2798583984375
236,3.2798583984375
237,3.2798583984375
238,3.2798583984375
239,3.2806640624999996
240,3.2806640624999996
241,3.2806640624999996
242,3.2806640624999996
243,3.2806640624999996
244,3.2814697265625
245,3.2814697265625
246,3.2814697265625
247,3.2822753906249997
248,3.2814697265625
249,3.2830810546875
250,3.2822753906249997
251,3.2830810546875
252,3.2822753906249997
253,3.2830810546875
254,3.28388671875
255,3.2830810546875
256,3.2830810546875
257,3.2830810546875
258,3.2830810546875
259,3.28388671875
260,3.28388671875
261,3.28388671875
262,3.28388671875
263,3.2846923828124996
264,3.28388671875
265,3.2846923828124996
266,3.2846923828124996
267,3.2846923828124996
268,3.28388671875
269,3.2846923828124996
270,3.285498046875
271,3.28388671875
272,3.2846923828124996
273,3.2846923828124996
274,3.2846923828124996
275,3.2846923828124996
276,3.2863037109374997
277,3.285498046875
278,3.285498046875
279,3.285498046875
280,3.285498046875
281,3.285498046875
282,3.2863037109374997
283,3.285498046875
284,3.2863037109374997
285,3.285498046875
286,3.2863037109374997
287,3.2863037109374997
288,3.2863037109374997
289,3.2863037109374997
290,3.2863037109374997
291,3.2863037109374997
292,3.2863037109374997
293,3.2863037109374997
294,3.2863037109374997
295,3.2863037109374997
296,3.2863037109374997
297,3.2863037109374997
298,3.2863037109374997
299,3.2863037109374997
300,3.2863037109374997
301,3.2863037109374997
302,3.2863037109374997
303,3.2863037109374997
304,3.2863037109374997
305,3.2863037109374997
306,3.2863037109374997
307,3.2863037109374997
308,3.2863037109374997
309,3.2863037109374997
310,3.2879150390625
311,3.2879150390625
312,3.2879150390625
313,3.2863037109374997
314,3.2879150390625
315,3.2863037109374997
316,3.2879150390625
317,3.2879150390625
318,3.2863037109374997
319,3.2863037109374997
320,3.2863037109374997
321,3.2863037109374997
322,3.2863037109374997
323,3.2879150390625
324,3.2887207031249996
325,3.2887207031249996
326,3.2879150390625
327,3.2863037109374997
328,3.2887207031249996
329,3.2887207031249996
330,3.2887207031249996
331,3.2887207031249996
332,3.2879150390625
333,3.2879150390625
334,3.2863037109374997
335,3.2887207031249996
336,3.2863037109374997
337,3.2887207031249996
338,3.2879150390625
339,3.2887207031249996
340,3.2887207031249996
341,3.2887207031249996
342,3.2879150390625
343,3.2887207031249996
344,3.2887207031249996
345,3.2887207031249996
346,3.2895263671875
347,3.2887207031249996
348,3.2895263671875
349,3.2887207031249996
350,3.2895263671875
351,3.2887207031249996
352,3.2895263671875
353,3.2887207031249996
354,3.2895263671875
355,3.2895263671875
356,3.2887207031249996
357,3.2887207031249996
358,3.2895263671875
359,3.2887207031249996
360,3.2895263671875
361,3.2895263671875
362,3.2895263671875
363,3.2895263671875
364,3.2895263671875
365,3.2895263671875
366,3.2895263671875
367,3.2895263671875
368,3.2887207031249996
369,3.2887207031249996
370,3.2895263671875
371,3.2895263671875
372,3.2895263671875
373,3.2895263671875
374,3.2895263671875
375,3.2895263671875
376,3.2895263671875
377,3.2895263671875
378,3.2895263671875
379,3.2895263671875
380,3.2895263671875
381,3.2895263671875
382,3.2887207031249996
383,3.2895263671875
384,3.2895263671875
385,3.2895263671875
386,3.2895263671875
387,3.2903320312499997
388,3.2895263671875
389,3.2895263671875
390,3.2895263671875
391,3.2895263671875
392,3.2895263671875
393,3.2895263671875
394,3.2895263671875
395,3.2895263671875
396,3.2895263671875
397,3.2895263671875
398,3.2895263671875
399,3.2903320312499997
400,3.2895263671875
401,3.2895263671875
402,3.2895263671875
403,3.2903320312499997
404,3.2903320312499997
405,3.2895263671875
406,3.2895263671875
407,3.2903320312499997
408,3.2895263671875
409,3.2895263671875
410,3.2895263671875
411,3.2903320312499997
412,3.2895263671875
413,3.2895263671875
414,3.2895263671875
415,3.2903320312499997
416,3.2895263671875
417,3.2903320312499997
418,3.2895263671875
419,3.2895263671875
420,3.2903320312499997
421,3.2903320312499997
422,3.2903320312499997
423,3.2903320312499997
424,3.2895263671875
425,3.2895263671875
426,3.2903320312499997
427,3.2903320312499997
428,3.2895263671875
429,3.2903320312499997
430,3.2895263671875
431,3.2911376953125
432,3.2903320312499997
433,3.2903320312499997
434,3.2903320312499997
435,3.2903320312499997
436,3.2903320312499997
437,3.2911376953125
438,3.2903320312499997
439,3.2903320312499997
440,3.2903320312499997
441,3.2911376953125
442,3.2903320312499997
443,3.2903320312499997
444,3.2903320312499997
445,3.2895263671875
446,3.2895263671875
447,3.2903320312499997
448,3.2903320312499997
449,3.2903320312499997
450,3.2903320312499997
451,3.2903320312499997
452,3.2903320312499997
453,3.2895263671875
454,3.2903320312499997
455,3.2895263671875
456,3.2903320312499997
457,3.2903320312499997
458,3.2903320312499997
459,3.2903320312499997
460,3.2903320312499997
461,3.2895263671875
462,3.2903320312499997
463,3.2903320312499997
464,3.2903320312499997
465,3.2903320312499997
466,3.2903320312499997
467,3.2911376953125
468,3.2911376953125
469,3.2895263671875
470,3.2911376953125
471,3.2911376953125
472,3.2903320312499997
473,3.2895263671875
474,3.2903320312499997
475,3.2911376953125
476,3.2903320312499997
477,3.2903320312499997
478,3.2895263671875
479,3.2895263671875
480,3.2911376953125
481,3.2895263671875
482,3.2903320312499997
483,3.2903320312499997
484,3.2903320312499997
485,3.2903320312499997
486,3.2895263671875
487,3.2903320312499997
488,3.2903320312499997
489,3.2903320312499997
490,3.2903320312499997
491,3.2911376953125
492,3.2903320312499997
493,3.2903320312499997
494,3.2903320312499997
495,3.2903320312499997
496,3.2911376953125
497,3.2911376953125
498,3.2903320312499997
499,3.2903320312499997
500,3.2903320312499997
501,3.2903320312499997
502,3.2911376953125
503,3.2903320312499997
504,3.2903320312499997
505,3.2911376953125
506,3.2911376953125
507,3.2903320312499997
508,3.2911376953125
509,3.2911376953125
510,3.2903320312499997
511,3.2911376953125
512,3.2903320312499997
513,3.2903320312499997
514,3.2903320312499997
515,3.2903320312499997
516,3.2911376953125
517,3.2903320312499997
518,3.2903320312499997
519,3.2903320312499997
520,3.2903320312499997
521,3.2903320312499997
522,3.2911376953125
523,3.2911376953125
524,3.2903320312499997
525,3.2903320312499997
526,3.2903320312499997
527,3.2903320312499997
528,3.2911376953125
529,3.2911376953125
530,3.2903320312499997
531,3.2911376953125
532,3.2911376953125
533,3.2903320312499997
534,3.2911376953125
535,3.2911376953125
536,3.2903320312499997
537,3.2911376953125
538,3.2903320312499997
539,3.2903320312499997
540,3.2911376953125
541,3.2903320312499997
542,3.2903320312499997
543,3.2903320312499997
544,3.2903320312499997
545,3.2903320312499997
546,3.2911376953125
547,3.2903320312499997
548,3.2903320312499997
549,3.2903320312499997
550,3.2903320312499997
551,3.2911376953125
552,3.2911376953125
553,3.2903320312499997
554,3.2911376953125
555,3.2903320312499997
556,3.2911376953125
557,3.2903320312499997
558,3.2911376953125
559,3.2911376953125
560,3.2903320312499997
561,3.2911376953125
562,3.291943359375
563,3.2903320312499997
564,3.2911376953125
565,3.2903320312499997
566,3.291943359375
567,3.2903320312499997
568,3.2911376953125
569,3.2903320312499997
570,3.2911376953125
571,3.2903320312499997
572,3.2911376953125
573,3.2911376953125
574,3.2911376953125
575,3.2903320312499997
576,3.2895263671875
577,3.2911376953125
578,3.2903320312499997
579,3.2911376953125
580,3.2903320312499997
581,3.2911376953125
582,3.2911376953125
583,3.2911376953125
584,3.2903320312499997
585,3.2903320312499997
586,3.2911376953125
587,3.2911376953125
588,3.2895263671875
589,3.2903320312499997
590,3.2903320312499997
591,3.2911376953125
592,3.2903320312499997
593,3.2911376953125
594,3.2903320312499997
595,3.2903320312499997
596,3.2903320312499997
597,3.2911376953125
598,3.2903320312499997
599,3.2911376953125
600,3.2911376953125
601,3.2911376953125
602,3.2903320312499997
603,3.2903320312499997
604,3.2903320312499997
605,3.2911376953125
606,3.2911376953125
607,3.2911376953125
608,3.2911376953125
609,3.2911376953125
610,3.2903320312499997
611,3.2903320312499997
612,3.2911376953125
613,3.2911376953125
614,3.2903320312499997
615,3.2911376953125
616,3.2903320312499997
617,3.2911376953125
618,3.2911376953125
619,3.2903320312499997
620,3.2903320312499997
621,3.2911376953125
622,3.2903320312499997
623,3.2911376953125
624,3.2911376953125
625,3.2911376953125
626,3.2911376953125
627,3.2911376953125
628,3.2911376953125
629,3.2911376953125
630,3.2903320312499997
631,3.2903320312499997
632,3.2911376953125
633,3.2903320312499997
634,3.2903320312499997
635,3.2911376953125
636,3.2911376953125
637,3.2911376953125
638,3.2903320312499997
639,3.2911376953125
640,3.2911376953125
641,3.2911376953125
642,3.2911376953125
643,3.2911376953125
644,3.2903320312499997
645,3.2903320312499997
646,3.2903320312499997
647,3.2911376953125
648,3.2911376953125
649,3.2911376953125
650,3.2903320312499997
651,3.2903320312499997
652,3.2911376953125
653,3.2911376953125
654,3.2903320312499997
655,3.2911376953125
656,3.2911376953125
657,3.2911376953125
658,3.2903320312499997
659,3.2911376953125
660,3.2903320312499997
661,3.291943359375
662,3.2911376953125
663,3.2911376953125
664,3.2903320312499997
665,3.2911376953125
666,3.2903320312499997
667,3.2911376953125
668,3.2911376953125
669,3.2911376953125
670,3.2911376953125
671,3.2903320312499997
672,3.2903320312499997
673,3.2903320312499997
674,3.2911376953125
675,3.2911376953125
676,3.2911376953125
677,3.2911376953125
678,3.2911376953125
679,3.2911376953125
680,3.2903320312499997
681,3.2911376953125
682,3.2911376953125
683,3.2911376953125
684,3.2911376953125
685,3.2903320312499997
686,3.2911376953125
687,3.2903320312499997
688,3.2911376953125
689,3.2911376953125
690,3.2911376953125
691,3.2911376953125
692,3.2911376953125
693,3.2903320312499997
694,3.2911376953125
695,3.2903320312499997
696,3.2911376953125
697,3.2895263671875
698,3.2911376953125
699,3.2911376953125
700,3.2903320312499997
701,3.2911376953125
702,3.2911376953125
703,3.2911376953125
704,3.2903320312499997
705,3.2903320312499997
706,3.2911376953125
707,3.2903320312499997
708,3.2911376953125
709,3.2911376953125
710,3.2903320312499997
711,3.2903320312499997
712,3.2911376953125
713,3.2903320312499997
714,3.2911376953125
715,3.2903320312499997
716,3.2911376953125
717,3.2903320312499997
718,3.2903320312499997
719,3.2903320312499997
720,3.2911376953125
721,3.2903320312499997
722,3.2903320312499997
723,3.2895263671875
724,3.2903320312499997
725,3.2903320312499997
726,3.2903320312499997
727,3.2903320312499997
728,3.2911376953125
729,3.2911376953125
730,3.2911376953125
731,3.2911376953125
732,3.2911376953125
733,3.2911376953125
734,3.2911376953125
735,3.2903320312499997
736,3.2911376953125
737,3.2911376953125
738,3.2903320312499997
739,3.2911376953125
740,3.2911376953125
741,3.2911376953125
742,3.2911376953125
743,3.2903320312499997
744,3.2911376953125
745,3.2911376953125
746,3.2903320312499997
747,3.2903320312499997
748,3.2911376953125
749,3.2911376953125
750,3.2911376953125
751,3.2911376953125
752,3.2911376953125
753,3.2903320312499997
754,3.2911376953125
755,3.2903320312499997
756,3.2903320312499997
757,3.2911376953125
758,3.2911376953125
759,3.2911376953125
760,3.2903320312499997
761,3.2903320312499997
762,3.2911376953125
763,3.2903320312499997
764,3.2911376953125
765,3.2911376953125
766,3.2911376953125
767,3.2911376953125
768,3.2911376953125
769,3.2911376953125
770,3.2911376953125
771,3.2911376953125
772,3.2903320312499997
773,3.2911376953125
774,3.2911376953125
775,3.2911376953125
776,3.2911376953125
777,3.2911376953125
778,3.2911376953125
779,3.2911376953125
780,3.2911376953125
781,3.2911376953125
782,3.2911376953125
783,3.2911376953125
784,3.2911376953125
785,3.2911376953125
786,3.2911376953125
787,3.2911376953125
788,3.2911376953125
789,3.2911376953125
790,3.2911376953125
791,3.2911376953125
792,3.2911376953125
793,3.2911376953125
794,3.2911376953125
795,3.2911376953125
796,3.2911376953125
797,3.2911376953125
798,3.2903320312499997
799,3.2911376953125
800,3.2911376953125
801,3.2903320312499997
802,3.2903320312499997
803,3.2911376953125
804,3.2911376953125
805,3.2911376953125
806,3.2911376953125
807,3.2903320312499997
808,3.2903320312499997
809,3.2911376953125
810,3.2911376953125
811,3.2911376953125
812,3.2903320312499997
813,3.2911376953125
814,3.2911376953125
815,3.2911376953125
816,3.2911376953125
817,3.2911376953125
818,3.2911376953125
819,3.2911376953125
820,3.2911376953125
821,3.2911376953125
822,3.2911376953125
823,3.2911376953125
824,3.2911376953125
825,3.2911376953125
826,3.2911376953125
827,3.2903320312499997
828,3.2911376953125
829,3.2911376953125
830,3.2911376953125
831,3.291943359375
832,3.2911376953125
833,3.2911376953125
834,3.2911376953125
835,3.2903320312499997
836,3.2903320312499997
837,3.2911376953125
838,3.2911376953125
839,3.2903320312499997
840,3.2911376953125
841,3.2911376953125
842,3.2911376953125
843,3.2911376953125
844,3.2911376953125
845,3.2911376953125
846,3.2911376953125
847,3.2911376953125
848,3.2911376953125
849,3.2911376953125
850,3.2911376953125
851,3.2911376953125
852,3.2903320312499997
853,3.2911376953125
854,3.2911376953125
855,3.2911376953125
856,3.2911376953125
857,3.2911376953125
858,3.2903320312499997
859,3.2911376953125
860,3.2911376953125
861,3.2911376953125
862,3.2911376953125
863,3.291943359375
864,3.2903320312499997
865,3.2911376953125
866,3.2911376953125
867,3.2911376953125
868,3.2911376953125
869,3.2911376953125
870,3.2911376953125
871,3.291943359375
872,3.2911376953125
873,3.2911376953125
874,3.2911376953125
875,3.2911376953125
876,3.291943359375
877,3.2911376953125
878,3.2911376953125
879,3.2911376953125
880,3.2911376953125
881,3.2903320312499997
882,3.2911376953125
883,3.2911376953125
884,3.2911376953125
885,3.2903320312499997
886,3.2903320312499997
887,3.2911376953125
888,3.2911376953125
889,3.2911376953125
890,3.2903320312499997
891,3.2911376953125
892,3.2911376953125
893,3.2911376953125
894,3.2911376953125
895,3.2911376953125
896,3.2911376953125
897,3.2911376953125
898,3.2911376953125
899,3.2911376953125
900,3.2911376953125
901,3.2903320312499997
902,3.2911376953125
903,3.2911376953125
904,3.2911376953125
905,3.2903320312499997
906,3.2911376953125
907,3.2911376953125
908,3.2911376953125
909,3.2911376953125
910,3.2911376953125
911,3.2911376953125
912,3.2911376953125
913,3.2911376953125
914,3.2911376953125
915,3.2911376953125
916,3.2911376953125
917,3.2911376953125
918,3.2911376953125
919,3.2903320312499997
920,3.2911376953125
921,3.2903320312499997
922,3.291943359375
923,3.2911376953125
924,3.2903320312499997
925,3.2911376953125
926,3.2903320312499997
927,3.2911376953125
928,3.2903320312499997
929,3.291943359375
930,3.2911376953125
931,3.2911376953125
932,3.2911376953125
933,3.2911376953125
934,3.2911376953125
935,3.2903320312499997
936,3.291943359375
937,3.2911376953125
938,3.2911376953125
939,3.2911376953125
940,3.2911376953125
941,3.2903320312499997
942,3.2911376953125
943,3.2911376953125
944,3.2911376953125
945,3.2911376953125
946,3.2911376953125
947,3.2911376953125
948,3.2911376953125
949,3.291943359375
950,3.2911376953125
951,3.2911376953125
952,3.2911376953125
953,3.2903320312499997
954,3.2911376953125
955,3.2903320312499997
956,3.2911376953125
957,3.2911376953125
958,3.2911376953125
959,3.291943359375
960,3.2911376953125
961,3.2911376953125
962,3.2911376953125
963,3.2911376953125
964,3.2911376953125
965,3.2911376953125
966,3.2911376953125
967,3.2911376953125
968,3.2903320312499997
969,3.2911376953125
970,3.2911376953125
971,3.291943359375
972,3.2903320312499997
973,3.2911376953125
974,3.2911376953125
975,3.2911376953125
976,3.2911376953125
977,3.2911376953125
978,3.2911376953125
979,3.2911376953125
980,3.2911376953125
981,3.2911376953125
982,3.2911376953125
983,3.2911376953125
984,3.2911376953125
985,3.2911376953125
986,3.2903320312499997
987,3.2911376953125
988,3.2911376953125
989,3.2911376953125
990,3.2911376953125
991,3.2903320312499997
992,3.2911376953125
993,3.2911376953125
994,3.2911376953125
995,3.291943359375
996,3.2911376953125
997,3.2911376953125
998,3.2911376953125
999,3.2911376953125
